"name","age"
"A",1
"B",5
"C",15
"D",20
"E",33
"F",45
"G",67
"H",0
"I",43
"J",21
"K",64
"L",22
"M",16
"N",12
"O",9
"P",26
"Q",44
"R",56
"S",65
"T",23
"U",33
"V",43
"W",12
"X",27
"Y",65
"Z",41
"AA",82
"AB",24
"AC",43
"AD",14
"AE",17
"AF",24
"AG",45
"AH",37
"AI",39
"AJ",22
"AK",17
"AL",18
"AM",12
"AN",43
"AO",34
"AP",28
"AQ",37
"AR",23
"AS",11
"AT",56
"AU",25